…
``` r
arrange(x106each_edu,desc(salary_rate))
```

    ## # A tibble: 140 x 15
    ##     年度 大職業別 `經常性薪資-薪資`~ `經常性薪資-女/男`~ `國中及以下-薪資`~
    ##    <dbl> <chr>               <dbl>            <dbl>            <dbl>
    ##  1  2017 礦業及土石採取~            23441             97.2               NA
    ##  2  2017 專業_科學及技~            29345             97.9            23556
    ##  3  2017 其他服務業-技~            27270             98.3               NA
    ##  4  2017 專業_科學及技~            26712             98.5               NA
    ##  5  2017 批發及零售業~            26457             98.5            23376
    ##  6  2017 製造業              26782             98.2            22563
    ##  7  2017 藝術_娛樂及休~            24602             97.7               NA
    ##  8  2017 工業部門            26860             98.1            22669
    ##  9  2017 工業及服務業部~            27055             98.3            22841
    ## 10  2017 服務業部門~            27363             98.6            23045
    ## # ... with 130 more rows, and 10 more variables: `國中及以下-女/男` <dbl>,
    ## #   `高中或高職-薪資` <dbl>, `高中或高職-女/男` <dbl>, `專科-薪資` <dbl>,
    ## #   `專科-女/男` <dbl>, `大學-薪資` <dbl>, `大學-女/男` <dbl>,
    ## #   `研究所及以上-薪資` <dbl>, `研究所及以上-女/男` <dbl>,
    ## #   salary_rate <dbl>
…
